…
I decided replace the NA values with the median per interval.


3. Create a new dataset that is equal to the original dataset but with the missing data filled in.


```r
originalDataWithoutNAValues<-originalData%>%group_by(interval)%>%
  mutate(steps= ifelse(!is.na(steps),steps,median(steps, na.rm = TRUE)))

originalDataWithoutNAValues
```

```
## # A tibble: 17,568 × 3
## # Groups:   interval [288]
##    steps date       interval
##    <int> <chr>         <int>
##  1     0 2012-10-01        0
##  2     0 2012-10-01        5
##  3     0 2012-10-01       10
##  4     0 2012-10-01       15
##  5     0 2012-10-01       20
##  6     0 2012-10-01       25
##  7     0 2012-10-01       30
##  8     0 2012-10-01       35
##  9     0 2012-10-01       40
## 10     0 2012-10-01       45
## # … with 17,558 more rows
```

4. Make a histogram of the total number of steps taken each day and Calculate and report the mean and median total number of steps taken per day. Do these values differ from the estimates from the first part of the assignment? What is the impact of imputing missing data on the estimates of the total daily number of steps?


```r
originalDataWithoutNAValues<-originalData%>%group_by(interval)%>%
  mutate(steps= ifelse(!is.na(steps),steps,median(steps, na.rm = TRUE)))

originalDataWithoutNAValues
```

```
## # A tibble: 17,568 × 3
## # Groups:   interval [288]
##    steps date       interval
##    <int> <chr>         <int>
##  1     0 2012-10-01        0
##  2     0 2012-10-01        5
##  3     0 2012-10-01       10
##  4     0 2012-10-01       15
##  5     0 2012-10-01       20
##  6     0 2012-10-01       25
##  7     0 2012-10-01       30
##  8     0 2012-10-01       35
##  9     0 2012-10-01       40
## 10     0 2012-10-01       45
## # … with 17,558 more rows
```
…
